{
	"credit": "Made by Space with Blockbench",
	"texture_size": [16, 16],
	"textures": {
		"0": "expanded_mobs_texture/soul_knife"
	},
	"elements": [
		{
			"from": [7, 0, 0],
			"to": [8, 2, 2],
			"faces": {
				"north": {"uv": [0, 15, 2, 16], "rotation": 270, "texture": "#0"},
				"east": {"uv": [2, 14, 0, 16], "texture": "#0"},
				"south": {"uv": [0, 14, 2, 15], "rotation": 270, "texture": "#0"},
				"west": {"uv": [0, 14, 2, 16], "texture": "#0"},
				"up": {"uv": [2, 14, 1, 16], "rotation": 180, "texture": "#0"},
				"down": {"uv": [0, 14, 1, 16], "texture": "#0"}
			}
		},
		{
			"from": [7, 2, 1],
			"to": [8, 3, 2],
			"faces": {
				"north": {"uv": [1, 13, 2, 14], "texture": "#0"},
				"east": {"uv": [1, 13, 2, 14], "texture": "#0"},
				"south": {"uv": [1, 13, 2, 14], "texture": "#0"},
				"west": {"uv": [1, 13, 2, 14], "texture": "#0"},
				"up": {"uv": [1, 13, 2, 14], "texture": "#0"},
				"down": {"uv": [1, 13, 2, 14], "texture": "#0"}
			}
		},
		{
			"from": [7, 2, 2],
			"to": [8, 4, 4],
			"faces": {
				"north": {"uv": [2, 13, 4, 14], "rotation": 270, "texture": "#0"},
				"east": {"uv": [4, 12, 2, 14], "texture": "#0"},
				"south": {"uv": [2, 12, 4, 13], "rotation": 270, "texture": "#0"},
				"west": {"uv": [2, 12, 4, 14], "texture": "#0"},
				"up": {"uv": [3, 12, 4, 14], "rotation": 180, "texture": "#0"},
				"down": {"uv": [2, 12, 3, 14], "texture": "#0"}
			}
		},
		{
			"from": [7, 4, 3],
			"to": [8, 5, 4],
			"faces": {
				"north": {"uv": [3, 11, 4, 12], "texture": "#0"},
				"east": {"uv": [3, 11, 4, 12], "texture": "#0"},
				"south": {"uv": [3, 11, 4, 12], "texture": "#0"},
				"west": {"uv": [3, 11, 4, 12], "texture": "#0"},
				"up": {"uv": [3, 11, 4, 12], "texture": "#0"},
				"down": {"uv": [3, 11, 4, 12], "texture": "#0"}
			}
		},
		{
			"from": [7, 4, 4],
			"to": [8, 7, 7],
			"faces": {
				"north": {"uv": [4, 9, 5, 12], "texture": "#0"},
				"east": {"uv": [7, 9, 4, 12], "texture": "#0"},
				"south": {"uv": [6, 9, 7, 12], "texture": "#0"},
				"west": {"uv": [4, 9, 7, 12], "texture": "#0"},
				"up": {"uv": [4, 9, 7, 10], "rotation": 90, "texture": "#0"},
				"down": {"uv": [4, 11, 7, 12], "rotation": 270, "texture": "#0"}
			}
		},
		{
			"from": [7, 6, 2],
			"to": [8, 7, 4],
			"faces": {
				"north": {"uv": [2, 9, 3, 10], "texture": "#0"},
				"east": {"uv": [4, 9, 2, 10], "texture": "#0"},
				"south": {"uv": [3, 9, 4, 10], "texture": "#0"},
				"west": {"uv": [2, 9, 4, 10], "texture": "#0"},
				"up": {"uv": [2, 9, 4, 10], "rotation": 90, "texture": "#0"},
				"down": {"uv": [2, 9, 4, 10], "rotation": 270, "texture": "#0"}
			}
		},
		{
			"from": [7, 7, 2],
			"to": [8, 8, 3],
			"faces": {
				"north": {"uv": [2, 8, 3, 9], "texture": "#0"},
				"east": {"uv": [2, 8, 3, 9], "texture": "#0"},
				"south": {"uv": [2, 8, 3, 9], "texture": "#0"},
				"west": {"uv": [2, 8, 3, 9], "texture": "#0"},
				"up": {"uv": [2, 8, 3, 9], "texture": "#0"},
				"down": {"uv": [2, 8, 3, 9], "texture": "#0"}
			}
		},
		{
			"from": [7, 2, 6],
			"to": [8, 4, 7],
			"faces": {
				"north": {"uv": [6, 14, 7, 12], "rotation": 180, "texture": "#0"},
				"east": {"uv": [6, 12, 7, 14], "texture": "#0"},
				"south": {"uv": [6, 12, 7, 14], "texture": "#0"},
				"west": {"uv": [6, 12, 7, 14], "texture": "#0"},
				"up": {"uv": [6, 12, 7, 13], "texture": "#0"},
				"down": {"uv": [6, 13, 7, 14], "texture": "#0"}
			}
		},
		{
			"from": [7, 2, 7],
			"to": [8, 3, 8],
			"faces": {
				"north": {"uv": [7, 13, 8, 14], "texture": "#0"},
				"east": {"uv": [7, 13, 8, 14], "texture": "#0"},
				"south": {"uv": [7, 13, 8, 14], "texture": "#0"},
				"west": {"uv": [7, 13, 8, 14], "texture": "#0"},
				"up": {"uv": [7, 13, 8, 14], "texture": "#0"},
				"down": {"uv": [7, 13, 8, 14], "texture": "#0"}
			}
		},
		{
			"from": [7, 3, 4],
			"to": [8, 4, 5],
			"faces": {
				"north": {"uv": [4, 12, 5, 13], "texture": "#0"},
				"east": {"uv": [4, 12, 5, 13], "texture": "#0"},
				"south": {"uv": [4, 12, 5, 13], "texture": "#0"},
				"west": {"uv": [4, 12, 5, 13], "texture": "#0"},
				"up": {"uv": [4, 12, 5, 13], "texture": "#0"},
				"down": {"uv": [4, 12, 5, 13], "texture": "#0"}
			}
		},
		{
			"from": [7, 1, 2],
			"to": [8, 2, 3],
			"faces": {
				"north": {"uv": [2, 14, 3, 15], "texture": "#0"},
				"east": {"uv": [2, 14, 3, 15], "texture": "#0"},
				"south": {"uv": [2, 14, 3, 15], "texture": "#0"},
				"west": {"uv": [2, 14, 3, 15], "texture": "#0"},
				"up": {"uv": [2, 14, 3, 15], "texture": "#0"},
				"down": {"uv": [2, 14, 3, 15], "texture": "#0"}
			}
		},
		{
			"from": [7, 13, 14],
			"to": [8, 15, 15],
			"faces": {
				"north": {"uv": [14, 3, 15, 1], "rotation": 180, "texture": "#0"},
				"east": {"uv": [14, 1, 15, 3], "texture": "#0"},
				"south": {"uv": [14, 1, 15, 3], "texture": "#0"},
				"west": {"uv": [14, 1, 15, 3], "texture": "#0"},
				"up": {"uv": [14, 1, 15, 2], "texture": "#0"},
				"down": {"uv": [14, 2, 15, 3], "texture": "#0"}
			}
		},
		{
			"from": [7, 7, 5],
			"to": [8, 8, 7],
			"faces": {
				"north": {"uv": [5, 8, 6, 9], "texture": "#0"},
				"east": {"uv": [7, 8, 5, 9], "texture": "#0"},
				"south": {"uv": [6, 8, 7, 9], "texture": "#0"},
				"west": {"uv": [5, 8, 7, 9], "texture": "#0"},
				"up": {"uv": [5, 8, 7, 9], "rotation": 90, "texture": "#0"},
				"down": {"uv": [5, 8, 7, 9], "rotation": 270, "texture": "#0"}
			}
		},
		{
			"from": [7, 10, 10],
			"to": [8, 11, 12],
			"faces": {
				"north": {"uv": [10, 5, 11, 6], "texture": "#0"},
				"east": {"uv": [12, 5, 10, 6], "texture": "#0"},
				"south": {"uv": [11, 5, 12, 6], "texture": "#0"},
				"west": {"uv": [10, 5, 12, 6], "texture": "#0"},
				"up": {"uv": [10, 5, 12, 6], "rotation": 90, "texture": "#0"},
				"down": {"uv": [10, 5, 12, 6], "rotation": 270, "texture": "#0"}
			}
		},
		{
			"from": [7, 8, 7],
			"to": [8, 10, 12],
			"faces": {
				"north": {"uv": [7, 6, 8, 8], "texture": "#0"},
				"east": {"uv": [12, 6, 7, 8], "texture": "#0"},
				"south": {"uv": [11, 6, 12, 8], "texture": "#0"},
				"west": {"uv": [7, 6, 12, 8], "texture": "#0"},
				"up": {"uv": [7, 6, 12, 7], "rotation": 90, "texture": "#0"},
				"down": {"uv": [7, 7, 12, 8], "rotation": 270, "texture": "#0"}
			}
		},
		{
			"from": [7, 11, 10],
			"to": [8, 13, 15],
			"faces": {
				"north": {"uv": [10, 3, 11, 5], "texture": "#0"},
				"east": {"uv": [15, 3, 10, 5], "texture": "#0"},
				"south": {"uv": [14, 3, 15, 5], "texture": "#0"},
				"west": {"uv": [10, 3, 15, 5], "texture": "#0"},
				"up": {"uv": [10, 3, 15, 4], "rotation": 90, "texture": "#0"},
				"down": {"uv": [10, 4, 15, 5], "rotation": 270, "texture": "#0"}
			}
		},
		{
			"from": [7, 13, 13],
			"to": [8, 14, 14],
			"faces": {
				"north": {"uv": [13, 2, 14, 3], "texture": "#0"},
				"east": {"uv": [13, 2, 14, 3], "texture": "#0"},
				"south": {"uv": [13, 2, 14, 3], "texture": "#0"},
				"west": {"uv": [13, 2, 14, 3], "texture": "#0"},
				"up": {"uv": [13, 2, 14, 3], "texture": "#0"},
				"down": {"uv": [13, 2, 14, 3], "texture": "#0"}
			}
		},
		{
			"from": [7, 8, 6],
			"to": [8, 9, 7],
			"faces": {
				"north": {"uv": [6, 7, 7, 8], "texture": "#0"},
				"east": {"uv": [6, 7, 7, 8], "texture": "#0"},
				"south": {"uv": [6, 7, 7, 8], "texture": "#0"},
				"west": {"uv": [6, 7, 7, 8], "texture": "#0"},
				"up": {"uv": [6, 7, 7, 8], "texture": "#0"},
				"down": {"uv": [6, 7, 7, 8], "texture": "#0"}
			}
		}
	],
	"display": {
		"thirdperson_righthand": {
			"rotation": [-40, 0, 0],
			"translation": [0, 4.25, 2.5],
			"scale": [0.5, 0.5, 0.5]
		},
		"thirdperson_lefthand": {
			"rotation": [-40, 0, 0],
			"translation": [0, 4.25, 1.75],
			"scale": [0.5, 0.5, 0.5]
		},
		"firstperson_righthand": {
			"rotation": [0, 180, 0],
			"translation": [0, 4.75, 0],
			"scale": [0.5, 0.5, 0.5]
		},
		"firstperson_lefthand": {
			"rotation": [0, 180, 0],
			"translation": [0, 4.75, 0],
			"scale": [0.5, 0.5, 0.5]
		},
		"ground": {
			"translation": [0, 0.5, 0],
			"scale": [0.5, 0.5, 0.5]
		},
		"gui": {
			"rotation": [0, 90, 0]
		},
		"fixed": {
			"rotation": [0, -90, 0],
			"translation": [0, 0, 1.25]
		}
	},
	"groups": [
		{
			"name": "Handle",
			"origin": [0, 0, 0],
			"color": 0,
			"children": [0, 1, 2, 3, 4, 5, 6, 7, 8, 9, 10]
		},
		{
			"name": "Blade",
			"origin": [0, 0, 0],
			"color": 0,
			"children": [11, 12, 13, 14, 15, 16, 17]
		}
	]
}