{
    "parent": "item/handheld",

    "textures":
    {
        "layer0": "item/iron_sword"
    },

    "overrides":
    [
        {
            "predicate":
            {
                "custom_model_data":1001
            },
            "model": "expanded_mobs/iron_dagger"
        },
        {
            "predicate":
            {
                "custom_model_data":1002
            },
            "model": "expanded_mobs/soul_knife"
        }
    ]
}